Unnamed: 0_x,0_x,1_x,2_x,3_x,4_x,5_x,6_x,7_x,8_x,9_x,10_x,11_x,12_x,13_x,14_x,15_x,16_x,17_x,18_x,19_x,20_x,21_x,22_x,23_x,24_x,25_x,26_x,27_x,28_x,29_x,30_x,31_x,32_x,33_x,34_x,35_x,36_x,37_x,38_x,39_x,40_x,41_x,42_x,43_x,44_x,45_x,46_x,47_x,48_x,49_x,50_x,51_x,52_x,53_x,54_x,55_x,56_x,57_x,58_x,59_x,60_x,61_x,62_x,63_x,64_x,65_x,66_x,67_x,68_x,69_x,70_x,71_x,72_x,73_x,74_x,75_x,76_x,77_x,78_x,79_x,80_x,81_x,82_x,83_x,84_x,85_x,86_x,87_x,88_x,89_x,90_x,91,92,93,94,95,96,97,98,99,100,101,102,103,104,105,106,107,108,109,110,111,Unnamed: 0_y,0_y,1_y,2_y,3_y,4_y,5_y,6_y,7_y,8_y,9_y,10_y,11_y,12_y,13_y,14_y,15_y,16_y,17_y,18_y,19_y,20_y,21_y,22_y,23_y,24_y,25_y,26_y,27_y,28_y,29_y,30_y,31_y,32_y,33_y,34_y,35_y,36_y,37_y,38_y,39_y,40_y,41_y,42_y,43_y,44_y,45_y,46_y,47_y,48_y,49_y,50_y,51_y,52_y,53_y,54_y,55_y,56_y,57_y,58_y,59_y,60_y,61_y,62_y,63_y,64_y,65_y,66_y,67_y,68_y,69_y,70_y,71_y,72_y,73_y,74_y,75_y,76_y,77_y,78_y,79_y,80_y,81_y,82_y,83_y,84_y,85_y,86_y,87_y,88_y,89_y,90_y
0,0.0,0.0,0.0,-1.0,0.0,0.0,0.0,0.0,0.0,0.0,1.0,0.0,0.0,0.0,0.0,0.0,0.0,0.0,0.0,1.0,-1.0,0.0,0.0,0.0,0.0,0.0,0.0,0.0,1.0,0.0,0.0,0.0,0.0,0.0,0.0,0.0,-1.0,0.0,0.0,0.0,0.0,-1.0,0.0,0.0,0.0,0.0,0.0,0.0,0.0,0.0,0.0,0.0,0.0,0.0,0.0,0.0,0.0,0.0,0.0,0.0,0.0,0.0,0.0,0.0,0.0,0.0,1.0,0.0,0.0,0.0,0.0,0.0,0.0,0.0,0.0,0.0,0.0,0.0,0.0,0.0,0.0,0.0,0.0,-1.0,0.0,0.0,0.0,0.0,0.0,0.0,0.0,0.0,0.0,0.0,0.0,0.0,0.0,0.0,0.0,0.0,0.0,0.0,0.0,0.0,1.0,0.0,0.0,0.0,0.0,0.0,0.0,0.0,0,-2.5443641552606144,1.4008081818857836,1.5259717467118652,0.7349568659021386,0.9697430984322752,-0.5377573487833859,-0.5780830611137412,-0.5090226349052107,-0.3322561258372155,-0.6252219582242671,-0.2551623069498304,-0.0525798003897201,-0.5331485030756313,-0.5823959144000098,-1.7567152667737735,1.5072301324682456,1.308567835472488,0.0953461509975642,-0.0372037456563308,-0.5290810924688369,-0.5781536795626332,-0.112095290079414,-0.2827437880871127,-0.7298296577593453,-0.757387590413229,-0.4465049104103791,-0.5253428261623284,-0.5798773287653681,-0.5251827915660139,-0.2776303026061722,-0.7713790273394158,-0.9357718287461332,-0.6699939059118833,-0.5240778754171532,1.0524526329847856,1.1154738857773097,-0.4173441524681427,-0.3226409499122298,-0.337650178404589,0.0828416039743192,-0.5488012090440576,-0.5645618687405616,-0.9289212564949936,0.5611336176752845,-0.2084115595406726,-0.272357749655991,0.1731837906918365,-0.5402608498475038,-0.5699089935077168,-1.774695086324123,1.4889032387255636,1.5588225500251454,0.9615865760669888,1.4169642495690908,-0.5382529342860939,-0.5710647010911524,-0.9470525087399426,-0.3112053648616898,-0.7855801777723004,-1.3128738442467651,-0.9056509598880635,-0.538860164911044,-0.5675397028468644,-0.1316899358828339,-0.3162307153485577,-0.3982600060525594,-0.192406361371087,-0.7941640182574973,0.9768656202503696,-0.565289026549708,0.2782559668504114,-0.8499022651818071,1.1827029103829951,1.6815141065181267,-0.7882194951836133,0.3785383968044895,-0.0297807074110018,0.8767511011659895,-0.5145550675282186,-1.1369701151038796,-0.5320460794470389,-0.9874858791249662,1.0664475364357051,-0.0417433012964856,-0.2629218461372892,0.6406478691772751,0.0180538995111949,0.5628639813910284,-0.5511538571136675,1.8460040867595824,-1.1214942383117763
1,0.0,0.0,0.0,0.0,0.0,0.0,-1.0,0.0,0.0,0.0,0.0,-1.0,0.0,0.0,0.0,0.0,0.0,0.0,0.0,0.0,0.0,0.0,0.0,0.0,0.0,1.0,0.0,0.0,0.0,0.0,0.0,0.0,0.0,0.0,0.0,0.0,1.0,0.0,-1.0,0.0,0.0,1.0,0.0,0.0,0.0,0.0,0.0,0.0,1.0,0.0,0.0,0.0,0.0,0.0,0.0,0.0,0.0,0.0,0.0,0.0,0.0,0.0,0.0,0.0,0.0,0.0,1.0,0.0,0.0,0.0,0.0,0.0,0.0,0.0,0.0,0.0,0.0,0.0,-1.0,0.0,0.0,0.0,0.0,0.0,0.0,0.0,0.0,-1.0,0.0,0.0,0.0,0.0,0.0,0.0,0.0,0.0,0.0,0.0,0.0,0.0,0.0,0.0,0.0,0.0,0.0,0.0,0.0,0.0,0.0,0.0,0.0,0.0,1,-2.5404523556191947,0.5013135377212156,-0.0801392942805794,-0.2475703630658558,-0.2468592713453954,-0.5377573487833859,1.0175738879874383,1.4929299090569936,0.5788805820585556,0.732454344774093,-0.2507954818690823,-0.0525798003897201,-0.5331485030756313,1.0195717996747031,-0.5241009127926998,0.5915799164087666,0.582306594494342,0.8848346702026372,0.8565686158644665,1.0146741102663617,-0.5781536795626332,-0.5219101069405315,-0.2827437880871127,-0.8895582073950581,-1.0016415304669872,-0.3343715280727956,-0.5253428261623284,-0.5798773287653681,-0.5251827915660139,-1.1901753255059433,-1.3445976890904316,-1.198370563616872,-1.0052506141424662,-0.5240778754171532,-0.5736652062484885,-1.3528357617904605,1.3927761528503593,1.2864984509415305,0.5074653177524273,0.5269380990010223,-0.5488012090440576,-0.5645618687405616,-0.1198901984907369,-0.3571519992932396,-1.015865030417913,-1.2051396924657671,-1.0641837526043754,-0.5402608498475038,1.072422110189832,-1.3629728725353691,-0.3477051142356666,-0.8599116462683949,0.5482650289785544,-0.9421933567794474,2.5067422830663766,-0.5710647010911524,1.5177108370937973,-1.2326810668290469,-1.3373746300205462,-1.1277772378563005,-1.1310676631313856,-0.538860164911044,-0.5675397028468644,-0.5436526290358202,0.5996524115568147,0.531154049243595,1.1835307898677312,1.5701771387244383,-0.5401547320406931,-0.565289026549708,0.2782559668504114,-0.2876307945142629,1.1827029103829951,1.0505837408854644,-0.7882194951836133,0.912215310091745,-0.0297807074110018,-1.5254459157185722,-0.5145550675282186,-2.8694603678374526,-0.5320460794470389,-0.9874858791249662,-0.3385909939792412,0.5789460536217664,-0.2629218461372892,0.3795850028393981,1.0666683854571313,0.5628639813910284,0.6781700905639315,0.4377881601676007,0.0439471272446897
2,0.0,0.0,0.0,1.0,0.0,0.0,0.0,0.0,0.0,0.0,0.0,0.0,0.0,0.0,0.0,0.0,0.0,0.0,0.0,1.0,0.0,-1.0,0.0,0.0,0.0,0.0,1.0,0.0,-1.0,0.0,0.0,0.0,1.0,0.0,0.0,0.0,0.0,0.0,0.0,0.0,0.0,0.0,0.0,0.0,0.0,0.0,0.0,0.0,0.0,0.0,0.0,0.0,0.0,0.0,0.0,0.0,0.0,0.0,0.0,0.0,0.0,0.0,0.0,0.0,0.0,-1.0,0.0,0.0,0.0,0.0,0.0,0.0,0.0,0.0,0.0,0.0,0.0,0.0,0.0,-1.0,0.0,0.0,0.0,0.0,0.0,-1.0,0.0,0.0,0.0,0.0,0.0,0.0,0.0,0.0,0.0,0.0,0.0,1.0,0.0,0.0,0.0,0.0,0.0,0.0,0.0,0.0,0.0,0.0,0.0,0.0,0.0,0.0,2,-2.5392310400973126,0.5013135377212156,0.1510700973348164,0.2630852362004044,1.1909435293009427,-0.5377573487833859,-0.5780830611137412,1.4929299090569936,-0.3322561258372155,0.2246762049258999,-0.7267794156706132,-0.4984099209000968,-0.5331485030756313,-0.5823959144000098,-0.9349723641197244,-0.3240702996507125,0.2056599459473631,-0.419250822523291,-1.1544191975573277,1.0146741102663617,-0.5781536795626332,-0.931724923801649,1.54792668642244,2.17977108162756,2.2513768529762475,1.796162736341291,1.0300968336252163,1.0430314152505422,-0.9370750812094326,-0.2776303026061722,0.4274978582786394,1.2025321552013106,1.900307523855919,-0.5240778754171532,-0.5736652062484885,0.2927040032547196,1.3927761528503593,1.9019675122436888,1.9101827907553104,0.8600104702710496,0.9254339492748738,1.0761707501512603,0.6891408595135197,-0.3571519992932396,-0.3190961926272156,-0.3323223031223338,0.9605995000621532,-0.5402608498475038,1.072422110189832,0.6956381964084022,-0.3477051142356666,-0.7963563182877088,-1.073910935400785,-0.8298525183818979,-0.5382529342860939,-0.5710647010911524,-0.1254647267953626,0.6102703371056672,0.2686761101324607,-0.9404505518707698,-0.6802342566447417,-0.538860164911044,-0.5675397028468644,-0.5436526290358202,-0.3162307153485577,0.3133226300335588,0.9390185335894276,1.6827648128664352,-0.5401547320406931,-0.565289026549708,-0.543829346332983,1.7461170781130246,-0.8455208752941767,-0.2112769903798607,-0.7882194951836133,-0.5930272658466681,-0.1465025931944027,-1.5254459157185722,-0.5145550675282186,1.4617652639964802,-0.5320460794470389,0.3912027098861115,-0.823967940849859,-0.8243516183673253,0.1586542241323637,0.6406478691772751,0.0180538995111949,0.5628639813910284,0.6781700905639315,0.4377881601676007,0.4902863736280172
3,0.0,0.0,0.0,0.0,0.0,0.0,0.0,0.0,0.0,0.0,0.0,0.0,0.0,0.0,-1.0,0.0,0.0,0.0,0.0,-1.0,0.0,0.0,0.0,0.0,0.0,0.0,0.0,0.0,1.0,1.0,0.0,0.0,0.0,0.0,0.0,0.0,1.0,0.0,0.0,0.0,1.0,0.0,0.0,0.0,0.0,0.0,0.0,-1.0,0.0,0.0,0.0,0.0,0.0,0.0,0.0,0.0,0.0,0.0,0.0,0.0,0.0,0.0,0.0,0.0,0.0,0.0,0.0,0.0,0.0,0.0,0.0,0.0,0.0,0.0,1.0,0.0,0.0,0.0,0.0,0.0,0.0,0.0,0.0,0.0,0.0,0.0,0.0,0.0,0.0,0.0,0.0,0.0,0.0,0.0,0.0,-1.0,0.0,0.0,0.0,0.0,0.0,-1.0,0.0,0.0,0.0,0.0,0.0,0.0,0.0,0.0,0.0,0.0,3,-2.5326222291156326,0.5013135377212156,0.9629504037705576,-0.1980130686222947,0.306141805826273,-0.5377573487833859,-0.5780830611137412,-1.3098036524900925,-1.2433928337329867,-1.1708133638058362,-1.242064775198876,-1.0556975715380676,-0.5331485030756313,-0.5823959144000098,-0.9349723641197244,1.5072301324682456,1.5392413809940826,0.0865496215356692,0.5214039802941676,-0.5290810924688369,-0.5781536795626332,-0.931724923801649,-1.1980790253418891,-1.031135785481258,-1.294746258531497,-1.11930520443588,-0.5253428261623284,-0.5798773287653681,-0.9370750812094326,-0.2776303026061722,-0.8075442425918458,-0.015572900669679,0.2240239827030044,-0.5240778754171532,-0.5736652062484885,-0.9414508205291654,1.3927761528503593,1.1402130508639157,0.0500574461210524,0.6379622227576981,-0.5488012090440576,-0.5645618687405616,-0.9289212564949936,-0.3571519992932396,-0.8489308296972251,0.7981205751876093,1.2980633755065747,-0.5402608498475038,-0.5699089935077168,0.6956381964084022,0.5705990622449485,0.8851360734298725,-0.1161604687603805,0.0688741887984976,-0.5382529342860939,-0.5710647010911524,-0.5362586177676526,-1.2326810668290469,-0.9098252862255478,-1.2303608992293291,-1.0183593115097247,-0.538860164911044,-0.5675397028468644,-0.5436526290358202,-1.23211384225393,-1.2114973044366946,-1.312717062864406,-1.131927040683488,-0.5401547320406931,-0.565289026549708,-0.543829346332983,-0.9336448246429307,-0.8455208752941767,-1.1576725388288545,-0.7882194951836133,1.3911561297085129,0.2620240070475003,-1.5254459157185722,-1.549070259847829,-0.2707249887370929,-0.5320460794470389,-0.9874858791249662,-0.5940525449637769,0.2416148824705424,-0.0220212345546303,0.269135328619527,-1.5548678294077094,0.5628639813910284,-0.5511538571136675,-0.9704277664243808,0.8374391208150497
